<svg xmlns="http://www.w3.org/2000/svg" width="39" height="24" viewBox="0 0 39 24">
  <defs>
    <style>
      .cls-1 {
        fill: #595959;
        fill-rule: evenodd;
      }
    </style>
  </defs>
  <path id="Forma_1" data-name="Forma 1" class="cls-1" d="M1035.06,241h-33.12a2.975,2.975,0,0,0-2.94,3v18a2.975,2.975,0,0,0,2.94,3h33.12a2.975,2.975,0,0,0,2.94-3V244A2.975,2.975,0,0,0,1035.06,241Zm0.42,21a0.428,0.428,0,0,1-.42.428h-33.12a0.428,0.428,0,0,1-.42-0.428V244a0.429,0.429,0,0,1,.42-0.429h33.12a0.429,0.429,0,0,1,.42.429v18Zm-32.03-20.143v1.929a1.681,1.681,0,0,1-1.68,1.714h-1.848v2.571h1.848a4.243,4.243,0,0,0,4.19-4.286v-1.928h-2.51Zm31.82,3.643a1.672,1.672,0,0,1-1.67-1.714v-1.929h-2.52v1.929a4.243,4.243,0,0,0,4.19,4.285h1.89V245.5h-1.89Zm-33.46,12.428h-1.888V260.5h1.888a1.681,1.681,0,0,1,1.68,1.714v1.929H1006v-1.929A4.244,4.244,0,0,0,1001.81,257.928Zm33.46,0a4.244,4.244,0,0,0-4.19,4.286v1.929h2.52v-1.929a1.672,1.672,0,0,1,1.67-1.714h1.89v-2.572h-1.89Zm-11.56-10.037a6.972,6.972,0,0,0-10,0,7.34,7.34,0,0,0,0,10.218,6.972,6.972,0,0,0,10,0A7.34,7.34,0,0,0,1023.71,247.891Zm-1.78,8.4a4.494,4.494,0,0,1-6.44,0,4.737,4.737,0,0,1,0-6.582,4.494,4.494,0,0,1,6.44,0A4.737,4.737,0,0,1,1021.93,256.291Z" transform="translate(-999 -241)"/>
</svg>
