<svg xmlns="http://www.w3.org/2000/svg" width="16.97" height="17" viewBox="0 0 16.97 17">
  <metadata><?xpacket begin="﻿" id="W5M0MpCehiHzreSzNTczkc9d"?>
<x:xmpmeta xmlns:x="adobe:ns:meta/" x:xmptk="Adobe XMP Core 5.6-c138 79.159824, 2016/09/14-01:09:01        ">
   <rdf:RDF xmlns:rdf="http://www.w3.org/1999/02/22-rdf-syntax-ns#">
      <rdf:Description rdf:about=""/>
   </rdf:RDF>
</x:xmpmeta>
                                                                                                    
                                                                                                    
                                                                                                    
                                                                                                    
                                                                                                    
                                                                                                    
                                                                                                    
                                                                                                    
                                                                                                    
                                                                                                    
                                                                                                    
                                                                                                    
                                                                                                    
                                                                                                    
                                                                                                    
                                                                                                    
                                                                                                    
                                                                                                    
                                                                                                    
                                                                                                    
                           
<?xpacket end="w"?></metadata>
<defs>
    <style>
      .cls-1 {
        fill: #949494;
        fill-rule: evenodd;
      }
    </style>
  </defs>
  <path class="cls-1" d="M1471.55,272.062a0.706,0.706,0,0,0-.69.719V273.5a7.159,7.159,0,0,1-1.98,4.993,6.528,6.528,0,0,1-4.76,2.066h-0.01a6.917,6.917,0,0,1-6.74-7.067,7.164,7.164,0,0,1,1.98-4.994,6.554,6.554,0,0,1,4.77-2.066h0a6.444,6.444,0,0,1,2.74.612,0.68,0.68,0,0,0,.91-0.364,0.742,0.742,0,0,0-.35-0.948,7.777,7.777,0,0,0-3.3-.736h0a7.883,7.883,0,0,0-5.74,2.486,8.793,8.793,0,0,0-.01,12.021,7.9,7.9,0,0,0,5.74,2.493h0.01a7.877,7.877,0,0,0,5.73-2.486,8.664,8.664,0,0,0,2.38-6.01v-0.723A0.7,0.7,0,0,0,1471.55,272.062Zm1.22-6.069a0.665,0.665,0,0,0-.97,0l-7.68,8.052-1.75-1.827a0.665,0.665,0,0,0-.97,0,0.738,0.738,0,0,0,0,1.016l2.23,2.334a0.663,0.663,0,0,0,.97,0l8.17-8.56A0.737,0.737,0,0,0,1472.77,265.993Z" transform="translate(-1456 -265)"/>
</svg>
